source/sims/alu_sim_jumps.waves.vcd
$date
  Sun Jul  5 18:12:28 2020
$end
$version
  GHDL v0
$end
$timescale
  1 fs
$end
$scope module standard $end
$upscope $end
$scope module std_logic_1164 $end
$upscope $end
$scope module alu_devs $end
$upscope $end
$scope module basic_devs $end
$upscope $end
$scope module alu_sim $end
$var reg 5 ! instru[4:0] $end
$var reg 5 " a[4:0] $end
$var reg 5 # b[4:0] $end
$var reg 1 $ co $end
$var reg 5 % s[4:0] $end
$scope module alu_instancia $end
$var reg 1 & unit_sel $end
$var reg 3 ' op_sel[2:0] $end
$var reg 1 ( ci $end
$var reg 5 ) a[4:0] $end
$var reg 5 * b[4:0] $end
$var reg 1 + co $end
$var reg 5 , s[4:0] $end
$var reg 4 - a_mag[3:0] $end
$var reg 1 . sa $end
$var reg 4 / b_mag[3:0] $end
$var reg 1 0 sb $end
$var reg 5 1 a_aux[4:0] $end
$var reg 5 2 b_aux[4:0] $end
$var reg 5 3 logic_unit_output[4:0] $end
$var reg 1 4 arith_unit_coutput $end
$var reg 4 5 arith_unit_output[3:0] $end
$var reg 1 6 sf $end
$scope module arithmetic_unit $end
$var reg 4 7 a[3:0] $end
$var reg 4 8 b[3:0] $end
$var reg 1 9 sa $end
$var reg 1 : sb $end
$var reg 3 ; op_sel[2:0] $end
$var reg 1 < ci $end
$var reg 1 = co $end
$var reg 1 > sf $end
$var reg 4 ? s[3:0] $end
$var reg 4 @ adder_out[3:0] $end
$var reg 1 A adder_cout $end
$var reg 4 B a_prime[3:0] $end
$var reg 4 C b_prime[3:0] $end
$var reg 1 D sab $end
$var reg 1 E ci_prime $end
$var reg 3 F c_prime[2:0] $end
$var reg 1 G co_aux $end
$var reg 1 H fix_aux $end
$var reg 1 I overflow $end
$scope module operation_control_instance $end
$var reg 1 J sa $end
$var reg 1 K sb $end
$var reg 3 L c[2:0] $end
$var reg 1 M ci $end
$var reg 3 N c_prime[2:0] $end
$var reg 1 O ci_prime $end
$var reg 1 P sab $end
$upscope $end
$scope module arithmetic_control $end
$var reg 3 Q c[2:0] $end
$var reg 1 R ci $end
$var reg 4 S a[3:0] $end
$var reg 4 T b[3:0] $end
$var reg 4 U a_prime[3:0] $end
$var reg 4 V b_prime[3:0] $end
$var reg 1 W fix_aux $end
$var reg 1 X is_a $end
$var reg 1 Y is_b $end
$var reg 1 Z are_equal $end
$var reg 4 [ flag_sel[3:0] $end
$scope module comparator $end
$var reg 4 \ a[3:0] $end
$var reg 4 ] b[3:0] $end
$var reg 1 ^ is_a $end
$var reg 1 _ is_b $end
$var reg 1 ` are_equal $end
$var reg 2 a a_msb[1:0] $end
$var reg 2 b b_msb[1:0] $end
$var reg 2 c a_lsb[1:0] $end
$var reg 2 d b_lsb[1:0] $end
$var reg 1 e a_lsbo $end
$var reg 1 f b_lsbo $end
$var reg 1 g e_lsbo $end
$var reg 1 h a_msbo $end
$var reg 1 i b_msbo $end
$var reg 1 j e_msbo $end
$scope module msb $end
$var reg 2 k a[1:0] $end
$var reg 2 l b[1:0] $end
$var reg 1 m is_a $end
$var reg 1 n is_b $end
$var reg 1 o are_equal $end
$upscope $end
$scope module lsb $end
$var reg 2 p a[1:0] $end
$var reg 2 q b[1:0] $end
$var reg 1 r is_a $end
$var reg 1 s is_b $end
$var reg 1 t are_equal $end
$upscope $end
$upscope $end
$upscope $end
$scope module full_4bit_adder $end
$var reg 4 u a[3:0] $end
$var reg 4 v b[3:0] $end
$var reg 1 w ci $end
$var reg 1 x co $end
$var reg 4 y s[3:0] $end
$var reg 3 z c[2:0] $end
$scope module adder_a $end
$var reg 1 { a $end
$var reg 1 | b $end
$var reg 1 } ci $end
$var reg 1 !" co $end
$var reg 1 "" s $end
$upscope $end
$scope module adder_b $end
$var reg 1 #" a $end
$var reg 1 $" b $end
$var reg 1 %" ci $end
$var reg 1 &" co $end
$var reg 1 '" s $end
$upscope $end
$scope module adder_c $end
$var reg 1 (" a $end
$var reg 1 )" b $end
$var reg 1 *" ci $end
$var reg 1 +" co $end
$var reg 1 ," s $end
$upscope $end
$scope module adder_d $end
$var reg 1 -" a $end
$var reg 1 ." b $end
$var reg 1 /" ci $end
$var reg 1 0" co $end
$var reg 1 1" s $end
$upscope $end
$upscope $end
$scope module sign_control_instance $end
$var reg 3 2" c_prime[2:0] $end
$var reg 1 3" ci_prime $end
$var reg 1 4" sab $end
$var reg 1 5" sf $end
$var reg 1 6" co $end
$upscope $end
$upscope $end
$scope module logic_unit $end
$var reg 5 7" a[4:0] $end
$var reg 5 8" b[4:0] $end
$var reg 3 9" op_sel[2:0] $end
$var reg 1 :" ci $end
$var reg 5 ;" s[4:0] $end
$var reg 5 <" a_prov[4:0] $end
$var reg 5 =" b_prov[4:0] $end
$var reg 5 >" logic_gates[4:0] $end
$var reg 5 ?" zero_shift[4:0] $end
$var reg 5 @" signed_shift[4:0] $end
$var reg 4 A" unsigned_shift[3:0] $end
$var reg 1 B" dir $end
$scope module logic_operator $end
$var reg 5 C" a[4:0] $end
$var reg 5 D" b[4:0] $end
$var reg 3 E" op_sel[2:0] $end
$var reg 1 F" ci $end
$var reg 5 G" s[4:0] $end
$scope module logic_unit_0 $end
$var reg 1 H" a $end
$var reg 1 I" b $end
$var reg 3 J" c[2:0] $end
$var reg 1 K" ci $end
$var reg 1 L" s $end
$upscope $end
$scope module logic_unit_1 $end
$var reg 1 M" a $end
$var reg 1 N" b $end
$var reg 3 O" c[2:0] $end
$var reg 1 P" ci $end
$var reg 1 Q" s $end
$upscope $end
$scope module logic_unit_2 $end
$var reg 1 R" a $end
$var reg 1 S" b $end
$var reg 3 T" c[2:0] $end
$var reg 1 U" ci $end
$var reg 1 V" s $end
$upscope $end
$scope module logic_unit_3 $end
$var reg 1 W" a $end
$var reg 1 X" b $end
$var reg 3 Y" c[2:0] $end
$var reg 1 Z" ci $end
$var reg 1 [" s $end
$upscope $end
$scope module logic_unit_4 $end
$var reg 1 \" a $end
$var reg 1 ]" b $end
$var reg 3 ^" c[2:0] $end
$var reg 1 _" ci $end
$var reg 1 `" s $end
$upscope $end
$upscope $end
$scope module full_zero_shifter $end
$var reg 5 a" a[4:0] $end
$var reg 5 b" b[4:0] $end
$var reg 3 c" op_sel[2:0] $end
$var reg 1 d" ci $end
$var reg 5 e" s[4:0] $end
$var reg 5 f" a_prov[4:0] $end
$var reg 5 g" b_prov[4:0] $end
$var reg 5 h" s_shift[4:0] $end
$upscope $end
$scope module unsigned_shifter $end
$var reg 1 i" dir $end
$var reg 4 j" value[3:0] $end
$var reg 2 k" places[1:0] $end
$var reg 4 l" shifted[3:0] $end
$var reg 1 m" d3 $end
$var reg 1 n" d2 $end
$var reg 1 o" d1 $end
$var reg 1 p" d0 $end
$var reg 1 q" o3 $end
$var reg 1 r" o2 $end
$var reg 1 s" o1 $end
$var reg 1 t" o0 $end
$scope module shift_a $end
$var reg 2 u" sel[1:0] $end
$var reg 1 v" src00 $end
$var reg 1 w" src01 $end
$var reg 1 x" src02 $end
$var reg 1 y" src03 $end
$var reg 1 z" dst $end
$upscope $end
$scope module shift_b $end
$var reg 2 {" sel[1:0] $end
$var reg 1 |" src00 $end
$var reg 1 }" src01 $end
$var reg 1 !# src02 $end
$var reg 1 "# src03 $end
$var reg 1 ## dst $end
$upscope $end
$scope module shift_c $end
$var reg 2 $# sel[1:0] $end
$var reg 1 %# src00 $end
$var reg 1 &# src01 $end
$var reg 1 '# src02 $end
$var reg 1 (# src03 $end
$var reg 1 )# dst $end
$upscope $end
$scope module shift_d $end
$var reg 2 *# sel[1:0] $end
$var reg 1 +# src00 $end
$var reg 1 ,# src01 $end
$var reg 1 -# src02 $end
$var reg 1 .# src03 $end
$var reg 1 /# dst $end
$upscope $end
$upscope $end
$scope module signed_shifter $end
$var reg 1 0# dir $end
$var reg 5 1# value[4:0] $end
$var reg 3 2# places[2:0] $end
$var reg 5 3# shifted[4:0] $end
$var reg 1 4# d4 $end
$var reg 1 5# d3 $end
$var reg 1 6# d2 $end
$var reg 1 7# d1 $end
$var reg 1 8# d0 $end
$var reg 1 9# o4 $end
$var reg 1 :# o3 $end
$var reg 1 ;# o2 $end
$var reg 1 <# o1 $end
$var reg 1 =# o0 $end
$scope module shift_a $end
$var reg 3 ># sel[2:0] $end
$var reg 1 ?# src00 $end
$var reg 1 @# src01 $end
$var reg 1 A# src02 $end
$var reg 1 B# src03 $end
$var reg 1 C# src04 $end
$var reg 1 D# dst $end
$upscope $end
$scope module shift_b $end
$var reg 3 E# sel[2:0] $end
$var reg 1 F# src00 $end
$var reg 1 G# src01 $end
$var reg 1 H# src02 $end
$var reg 1 I# src03 $end
$var reg 1 J# src04 $end
$var reg 1 K# dst $end
$upscope $end
$scope module shift_c $end
$var reg 3 L# sel[2:0] $end
$var reg 1 M# src00 $end
$var reg 1 N# src01 $end
$var reg 1 O# src02 $end
$var reg 1 P# src03 $end
$var reg 1 Q# src04 $end
$var reg 1 R# dst $end
$upscope $end
$scope module shift_d $end
$var reg 3 S# sel[2:0] $end
$var reg 1 T# src00 $end
$var reg 1 U# src01 $end
$var reg 1 V# src02 $end
$var reg 1 W# src03 $end
$var reg 1 X# src04 $end
$var reg 1 Y# dst $end
$upscope $end
$scope module shift_e $end
$var reg 3 Z# sel[2:0] $end
$var reg 1 [# src00 $end
$var reg 1 \# src01 $end
$var reg 1 ]# src02 $end
$var reg 1 ^# src03 $end
$var reg 1 _# src04 $end
$var reg 1 `# dst $end
$upscope $end
$upscope $end
$upscope $end
$upscope $end
$upscope $end
$enddefinitions $end
#0
b00000 !
b00010 "
b00000 #
0$
b00010 %
0&
b000 '
0(
b00010 )
b00000 *
0+
b00010 ,
b0010 -
0.
b0000 /
00
bUUUUU 1
bUUUUU 2
b00000 3
04
b0010 5
06
b0010 7
b0000 8
09
0:
b000 ;
0<
0=
0>
b0010 ?
b0010 @
0A
b0010 B
b0000 C
0D
0E
b000 F
0G
0H
0I
0J
0K
b000 L
0M
b000 N
0O
0P
b000 Q
0R
b0010 S
b0000 T
b0010 U
b0000 V
0W
1X
0Y
0Z
b0000 [
b0010 \
b0000 ]
1^
0_
0`
b00 a
b00 b
b10 c
b00 d
1e
0f
0g
0h
0i
1j
b00 k
b00 l
0m
0n
1o
b10 p
b00 q
1r
0s
0t
b0010 u
b0000 v
0w
0x
b0010 y
b000 z
0{
0|
0}
0!"
0""
1#"
0$"
0%"
0&"
1'"
0("
0)"
0*"
0+"
0,"
0-"
0."
0/"
00"
01"
b000 2"
03"
04"
05"
06"
b00010 7"
b00000 8"
b000 9"
0:"
b00000 ;"
bUUUUU <"
bUUUUU ="
b00000 >"
bUUUUU ?"
b00010 @"
b0010 A"
1B"
b00010 C"
b00000 D"
b000 E"
0F"
b00000 G"
0H"
0I"
b000 J"
0K"
0L"
1M"
0N"
b000 O"
0P"
0Q"
0R"
0S"
b000 T"
0U"
0V"
0W"
0X"
b000 Y"
0Z"
0["
0\"
0]"
b000 ^"
0_"
0`"
b00010 a"
b00000 b"
b000 c"
0d"
bUUUUU e"
bUUUUU f"
bUUUUU g"
bUUUUU h"
1i"
b0010 j"
b00 k"
b0010 l"
0m"
1n"
0o"
0p"
0q"
1r"
0s"
0t"
b00 u"
0v"
1w"
0x"
0y"
0z"
b00 {"
1|"
0}"
0!#
0"#
1##
b00 $#
0%#
0&#
0'#
1(#
0)#
b00 *#
0+#
0,#
1-#
0.#
0/#
10#
b00010 1#
b000 2#
b00010 3#
04#
15#
06#
07#
08#
09#
1:#
0;#
0<#
0=#
b000 >#
0?#
1@#
0A#
0B#
0C#
0D#
b000 E#
1F#
0G#
0H#
0I#
0J#
1K#
b000 L#
0M#
0N#
0O#
0P#
1Q#
0R#
b000 S#
0T#
0U#
0V#
1W#
0X#
0Y#
b000 Z#
0[#
0\#
1]#
0^#
0_#
0`#
#1000000
b00001 !
b00001 #
1$
b10001 %
1(
b00001 *
1+
b10001 ,
b0001 /
b11111 3
14
b0001 5
16
b0001 8
1<
1=
1>
b0001 ?
b0001 @
1A
b1110 C
1E
1G
1I
1M
1O
1R
b0001 T
b0010 U
b1110 V
b0001 [
b0001 ]
b01 d
b01 q
b1110 v
1w
1x
b0001 y
b110 z
1}
1""
1$"
1&"
0'"
1)"
1*"
1+"
0,"
1."
1/"
10"
01"
13"
15"
16"
b00001 8"
1:"
b11111 ;"
b11111 >"
b00100 @"
b0100 A"
0B"
b00001 D"
1F"
b11111 G"
1I"
1K"
1L"
1P"
1Q"
1U"
1V"
1Z"
1["
1_"
1`"
b00001 b"
1d"
0i"
b01 k"
b0100 l"
0n"
1o"
0q"
1r"
b01 u"
0w"
1x"
0z"
b01 {"
0|"
1}"
1##
b01 $#
1%#
0(#
b01 *#
0-#
1.#
00#
b001 2#
b00100 3#
05#
17#
09#
0:#
1;#
b001 >#
0@#
1B#
0D#
b001 E#
0F#
1H#
0K#
b001 L#
1N#
0Q#
1R#
b001 S#
1T#
0W#
b001 Z#
0]#
1_#
#2000000
b00010 !
b00010 #
0$
b00010 %
b001 '
0(
b00010 *
0+
b00010 ,
b0010 /
b00010 3
04
b0010 5
06
b0010 8
b001 ;
0<
0=
0>
b0010 ?
b0010 @
0A
b0000 C
0E
b001 F
0G
0I
b001 L
0M
b001 N
0O
b001 Q
0R
b0010 T
b0000 V
0X
1Z
b0010 [
b0010 ]
0^
1`
b10 d
0e
1g
b10 q
0r
1t
b0000 v
0w
0x
b0010 y
b000 z
0}
0""
0$"
0&"
1'"
0)"
0*"
0+"
0,"
0."
0/"
00"
01"
b001 2"
03"
05"
06"
b00010 8"
b001 9"
0:"
b00010 ;"
b00010 >"
b10000 @"
b1000 A"
1B"
b00010 D"
b001 E"
0F"
b00010 G"
0I"
b001 J"
0K"
0L"
1N"
b001 O"
0P"
b001 T"
0U"
0V"
b001 Y"
0Z"
0["
b001 ^"
0_"
0`"
b00010 b"
b001 c"
0d"
1i"
b10 k"
b1000 l"
1n"
0o"
0q"
0r"
1t"
b10 u"
1w"
0x"
0z"
b10 {"
1|"
0}"
0##
b10 $#
0%#
1(#
b10 *#
1-#
0.#
1/#
10#
b010 2#
b10000 3#
15#
07#
0:#
0;#
1=#
b010 >#
1@#
0B#
b010 E#
1F#
0H#
0K#
b010 L#
0N#
1Q#
0R#
b010 S#
0T#
1W#
b010 Z#
1]#
0_#
1`#
#3000000
b00011 !
b00011 #
b00011 %
1(
b00011 *
b00011 ,
b0011 /
b11100 3
b0011 5
b0011 8
1<
b0011 ?
b0011 @
1E
1M
1O
1R
b0011 T
1Y
0Z
b0011 [
b0011 ]
1_
0`
b11 d
1f
0g
b11 q
1s
0t
1w
b0011 y
1}
1""
13"
b00011 8"
1:"
b11100 ;"
b11100 >"
b10000 @"
b0001 A"
0B"
b00011 D"
1F"
b11100 G"
1I"
1K"
1P"
0Q"
1U"
1V"
1Z"
1["
1_"
1`"
b00011 b"
1d"
0i"
b11 k"
b0001 l"
0n"
1o"
0s"
1t"
b11 u"
0w"
1x"
b11 {"
0|"
1}"
b11 $#
1%#
0(#
0)#
b11 *#
0-#
1.#
1/#
00#
b011 2#
b10000 3#
05#
17#
19#
0<#
0=#
b011 >#
0@#
1B#
1D#
b011 E#
0F#
1H#
b011 L#
1N#
0Q#
b011 S#
1T#
0W#
0Y#
b011 Z#
0]#
1_#
0`#
#4000000
b00100 !
b00100 #
b00100 %
b010 '
0(
b00100 *
b00100 ,
b0100 /
b00110 3
b0100 5
b0100 8
b010 ;
0<
b0100 ?
b0100 @
b0000 B
b0100 C
0E
b010 F
b010 L
0M
b010 N
0O
b010 Q
0R
b0100 T
b0000 U
b0100 V
b0100 [
b0100 ]
b01 b
b00 d
1e
0f
1i
0j
b01 l
1n
0o
b00 q
1r
0s
b0000 u
b0100 v
0w
b0100 y
0}
0""
0#"
0'"
1)"
1,"
b010 2"
03"
b00100 8"
b010 9"
0:"
b00110 ;"
b00110 >"
b00100 @"
b0010 A"
1B"
b00100 D"
b010 E"
0F"
b00110 G"
0I"
b010 J"
0K"
0N"
b010 O"
0P"
1Q"
1S"
b010 T"
0U"
b010 Y"
0Z"
0["
b010 ^"
0_"
0`"
b00100 b"
b010 c"
0d"
1i"
b00 k"
b0010 l"
1n"
0o"
1r"
0s"
0t"
b00 u"
1w"
0x"
b00 {"
1|"
0}"
1##
b00 $#
0%#
1(#
0)#
b00 *#
1-#
0.#
0/#
10#
b100 2#
b00100 3#
15#
07#
09#
1;#
0=#
b100 >#
1@#
0B#
0D#
b100 E#
1F#
0H#
b100 L#
0N#
1Q#
1R#
b100 S#
0T#
1W#
b100 Z#
1]#
0_#
0`#
#5000000
b00101 !
b00101 #
b00110 %
1(
b00101 *
b00110 ,
b0101 /
b11000 3
b0110 5
b0101 8
1<
b0110 ?
b0110 @
b0101 C
1E
1M
1O
1R
b0101 T
b0101 V
b0101 [
b0101 ]
b01 d
b01 q
b0101 v
1w
b0110 y
b001 z
1|
1}
1!"
0""
1%"
1'"
13"
b00101 8"
1:"
b11000 ;"
b11000 >"
b0100 A"
0B"
b00101 D"
1F"
b11000 G"
1I"
1K"
1P"
0Q"
1U"
0V"
1Z"
1["
1_"
1`"
b00101 b"
1d"
0i"
b01 k"
b0100 l"
0n"
1o"
0q"
1r"
b01 u"
0w"
1x"
0z"
b01 {"
0|"
1}"
1##
b01 $#
1%#
0(#
b01 *#
0-#
1.#
00#
b101 2#
05#
17#
b101 >#
0@#
1B#
b101 E#
0F#
1H#
b101 L#
1N#
0Q#
b101 S#
1T#
0W#
b101 Z#
0]#
1_#
#6000000
b00110 !
b00110 #
1$
b00001 %
b011 '
0(
b00110 *
1+
b00001 ,
b0110 /
b00000 3
14
b0001 5
b0110 8
b011 ;
0<
1=
b0001 ?
b0001 @
1A
b0010 B
b1111 C
0E
b011 F
1G
1I
b011 L
0M
b011 N
0O
b011 Q
0R
b0110 T
b0010 U
b1111 V
0W
b0110 [
b0110 ]
b10 d
0e
1g
b10 q
0r
1t
b0010 u
b1111 v
0w
1x
b0001 y
b110 z
0}
0!"
1""
1#"
1$"
0%"
1&"
0'"
1*"
1+"
0,"
1."
1/"
10"
01"
b011 2"
03"
16"
b00110 8"
b011 9"
0:"
b00000 ;"
b00000 ?"
b1000 A"
1B"
b00110 D"
b011 E"
0F"
0I"
b011 J"
0K"
1N"
b011 O"
0P"
b011 T"
0U"
b011 Y"
0Z"
b011 ^"
0_"
b00110 b"
b011 c"
0d"
b00000 e"
b00000 f"
b00000 h"
1i"
b10 k"
b1000 l"
1n"
0o"
0q"
0r"
1t"
b10 u"
1w"
0x"
0z"
b10 {"
1|"
0}"
0##
b10 $#
0%#
1(#
b10 *#
1-#
0.#
1/#
10#
b110 2#
15#
07#
b110 >#
1@#
0B#
b110 E#
1F#
0H#
b110 L#
0N#
1Q#
b110 S#
0T#
1W#
b110 Z#
1]#
0_#
#7000000
b00111 !
b00111 #
b00110 %
1(
b00111 *
b00110 ,
b0111 /
b0110 5
b0111 8
1<
b0110 ?
b0110 @
b1110 B
b0111 C
1E
0G
1H
1M
1O
1R
b0111 T
b1110 U
b0111 V
1W
b0111 [
b0111 ]
b11 d
1f
0g
b11 q
1s
0t
b1110 u
b0111 v
1w
b0110 y
b111 z
1}
1!"
0""
1%"
1'"
1("
1,"
1-"
0."
13"
06"
b00111 8"
1:"
b0001 A"
0B"
b00111 D"
1F"
1I"
1K"
1P"
1U"
1Z"
1_"
b00111 b"
1d"
0i"
b11 k"
b0001 l"
0n"
1o"
0s"
1t"
b11 u"
0w"
1x"
b11 {"
0|"
1}"
b11 $#
1%#
0(#
0)#
b11 *#
0-#
1.#
1/#
00#
b111 2#
05#
17#
b111 >#
0@#
1B#
b111 E#
0F#
1H#
b111 L#
1N#
0Q#
b111 S#
1T#
0W#
b111 Z#
0]#
1_#
#8000000
b01000 !
b00001 "
b00100 #
0$
b00001 %
b100 '
0(
b00001 )
b00100 *
0+
b00001 ,
b0001 -
b0100 /
04
b0001 5
b0001 7
b0100 8
b100 ;
0<
0=
b0001 ?
b0001 @
0A
b0000 B
b0001 C
0E
b100 F
1G
0I
b100 L
0M
b100 N
0O
b100 Q
0R
b0001 S
b0100 T
b0000 U
b0001 V
b1000 [
b0001 \
b0100 ]
b01 c
b00 d
1e
0f
b01 p
b00 q
1r
0s
b0000 u
b0001 v
0w
0x
b0001 y
b000 z
0}
0!"
1""
0#"
0$"
0%"
0&"
0'"
0("
0)"
0*"
0+"
0,"
0-"
0/"
00"
01"
b100 2"
03"
16"
b00001 7"
b00100 8"
b100 9"
0:"
b00010 @"
b0001 A"
1B"
b00001 C"
b00100 D"
b100 E"
0F"
1H"
0I"
b100 J"
0K"
0M"
0N"
b100 O"
0P"
b100 T"
0U"
b100 Y"
0Z"
b100 ^"
0_"
b00001 a"
b00100 b"
b100 c"
0d"
1i"
b0001 j"
b00 k"
b0001 l"
1m"
0o"
0p"
1q"
0s"
0t"
b00 u"
1v"
0x"
0y"
1z"
b00 {"
0}"
0!#
1"#
b00 $#
0%#
0&#
1'#
0)#
b00 *#
0+#
1,#
0.#
0/#
10#
b00001 1#
b100 2#
b00010 3#
14#
07#
08#
09#
1:#
0;#
0=#
b100 >#
1?#
0B#
0C#
0D#
b100 E#
0H#
0I#
1J#
1K#
b100 L#
0N#
0O#
1P#
0R#
b100 S#
0T#
0U#
1V#
b100 Z#
0[#
1\#
0_#
0`#
#9000000
b01001 !
b01001 "
b01001 #
b00001 %
1(
b01001 )
b01001 *
b00001 ,
b1001 -
b1001 /
b0001 5
b1001 7
b1001 8
1<
b0001 ?
b0001 @
b0000 C
1E
1M
1O
1R
b1001 S
b1001 T
b0000 V
0Y
1Z
b1001 [
b1001 \
b1001 ]
0_
1`
b10 a
b10 b
b01 d
0e
1g
0i
1j
b10 k
b10 l
0n
1o
b01 q
0r
1t
b0000 v
1w
b0001 y
b000 z
0|
1}
0!"
1""
0%"
0'"
13"
b01001 7"
b01001 8"
1:"
b10010 @"
b0011 A"
0B"
b01001 C"
b01001 D"
1F"
1I"
1K"
1P"
0S"
1U"
1W"
1X"
1Z"
1_"
b01001 a"
b01001 b"
1d"
0i"
b1001 j"
b01 k"
b0011 l"
1p"
0q"
1s"
1t"
b01 u"
1y"
0z"
b01 {"
1!#
b01 $#
1&#
1)#
b01 *#
1+#
1/#
00#
b01001 1#
b001 2#
b10010 3#
04#
15#
07#
18#
19#
0:#
0;#
1<#
0=#
b001 >#
0?#
1@#
0B#
1C#
1D#
b001 E#
1F#
0H#
1I#
0J#
0K#
b001 L#
0N#
1O#
0P#
1Q#
0R#
b001 S#
0T#
1U#
0V#
1W#
1Y#
b001 Z#
1[#
0\#
1]#
0_#
0`#
#10000000
b01010 !
b01010 "
b01010 #
b00001 %
b101 '
0(
b01010 )
b01010 *
b00001 ,
b1010 -
b1010 /
b01010 3
b0001 5
b1010 7
b1010 8
b101 ;
0<
b0001 ?
b0001 @
b0001 C
0E
b101 F
b101 L
0M
b101 N
0O
b101 Q
0R
b1010 S
b1010 T
b0001 V
b1010 [
b1010 \
b1010 ]
b10 c
b10 d
b10 p
b10 q
b0001 v
0w
b0001 y
1|
0}
1""
b101 2"
03"
b01010 7"
b01010 8"
b101 9"
0:"
b01010 ;"
b10010 @"
b1010 A"
1B"
b01010 C"
b01010 D"
b101 E"
0F"
0H"
0I"
b101 J"
0K"
1M"
1N"
b101 O"
0P"
b101 T"
0U"
b101 Y"
0Z"
b101 ^"
0_"
b01010 a"
b01010 b"
b101 c"
0d"
1i"
b1010 j"
b10 k"
b1010 l"
0m"
1n"
0o"
1p"
0q"
1r"
0s"
1t"
b10 u"
0v"
1w"
0x"
1y"
0z"
b10 {"
1|"
0}"
1!#
0"#
1##
b10 $#
0%#
1&#
0'#
1(#
0)#
b10 *#
1+#
0,#
1-#
0.#
1/#
10#
b01010 1#
b010 2#
b10010 3#
17#
08#
09#
1:#
0;#
0<#
1=#
b010 >#
1B#
0C#
0D#
b010 E#
1H#
0I#
1K#
b010 L#
1N#
0O#
0R#
b010 S#
1T#
0U#
0Y#
b010 Z#
0[#
1_#
1`#
#11000000
b01011 !
b01011 "
b01011 #
b00001 %
1(
b01011 )
b01011 *
b00001 ,
b1011 -
b1011 /
b01101 3
b0001 5
b1011 7
b1011 8
1<
b0001 ?
b0001 @
b0000 C
1E
1M
1O
1R
b1011 S
b1011 T
b0000 V
b1011 [
b1011 \
b1011 ]
b11 c
b11 d
b11 p
b11 q
b0000 v
1w
b0001 y
b000 z
0|
1}
0!"
1""
0%"
0'"
13"
b01011 7"
b01011 8"
1:"
b01101 ;"
b11010 @"
b1101 A"
0B"
b01011 C"
b01011 D"
1F"
1H"
1I"
1K"
1P"
1U"
1Z"
1_"
b01011 a"
b01011 b"
1d"
0i"
b1011 j"
b11 k"
b1101 l"
1m"
0n"
1o"
1q"
1r"
0s"
1t"
b11 u"
1v"
0w"
1x"
1z"
b11 {"
0|"
1}"
1"#
1##
b11 $#
1%#
1'#
0(#
0)#
b11 *#
1,#
0-#
1.#
1/#
00#
b01011 1#
b011 2#
b11010 3#
04#
18#
19#
1:#
0;#
1<#
0=#
b011 >#
0?#
1C#
1D#
b011 E#
1I#
0J#
1K#
b011 L#
1O#
0P#
0R#
b011 S#
1U#
0V#
1Y#
b011 Z#
1[#
0\#
0`#
#12000000
b01100 !
b01100 "
b00010 #
b00001 %
b110 '
0(
b01100 )
b00010 *
b00001 ,
b1100 -
b0010 /
b00011 3
b0001 5
b1100 7
b0010 8
b110 ;
0<
b0001 ?
b0001 @
b0001 C
0E
b110 F
b110 L
0M
b110 N
0O
b110 Q
0R
b1100 S
b0010 T
b0001 V
1X
0Z
b1100 [
b1100 \
b0010 ]
1^
0`
b11 a
b00 b
b00 c
b10 d
1f
0g
1h
0j
b11 k
b00 l
1m
0o
b00 p
b10 q
1s
0t
b0001 v
0w
b0001 y
1|
0}
1""
b110 2"
03"
b01100 7"
b00010 8"
b110 9"
0:"
b00011 ;"
b00011 @"
b0011 A"
1B"
b01100 C"
b00010 D"
b110 E"
0F"
0H"
0I"
b110 J"
0K"
0M"
b110 O"
0P"
1R"
b110 T"
0U"
0X"
b110 Y"
0Z"
b110 ^"
0_"
b01100 a"
b00010 b"
b110 c"
0d"
1i"
b1100 j"
b10 k"
b0011 l"
0m"
0n"
1o"
1p"
1q"
1r"
0s"
0t"
b10 u"
0v"
0w"
1x"
1y"
1z"
b10 {"
0|"
1}"
1!#
0"#
1##
b10 $#
1%#
1&#
0'#
0(#
0)#
b10 *#
1+#
0,#
0-#
1.#
0/#
10#
b01100 1#
b010 2#
b00011 3#
05#
16#
17#
08#
19#
1:#
0;#
0<#
0=#
b010 >#
0@#
1A#
1B#
0C#
1D#
b010 E#
0F#
1G#
1H#
0I#
1K#
b010 L#
1M#
1N#
0O#
0Q#
0R#
b010 S#
1T#
0U#
0W#
1X#
0Y#
b010 Z#
0[#
0]#
1^#
1_#
0`#
#13000000
b01101 !
b00001 "
b01101 #
1(
b00001 )
b01101 *
b0001 -
b1101 /
b0001 7
b1101 8
1<
b0010 @
1E
1M
1O
1R
b0001 S
b1101 T
0X
1Y
b1101 [
b0001 \
b1101 ]
0^
1_
b00 a
b11 b
b01 c
b01 d
0f
1g
0h
1i
b00 k
b11 l
0m
1n
b01 p
b01 q
0s
1t
1w
b0010 y
b001 z
1}
1!"
0""
1%"
1'"
13"
b00001 7"
b01101 8"
1:"
b0010 A"
0B"
b00001 C"
b01101 D"
1F"
1H"
1I"
1K"
0N"
1P"
0R"
1S"
1U"
0W"
1X"
1Z"
1_"
b00001 a"
b01101 b"
1d"
0i"
b0001 j"
b01 k"
b0010 l"
0m"
0o"
1p"
0q"
0r"
1s"
0t"
b01 u"
0v"
0x"
1y"
0z"
b01 {"
0}"
1!#
0"#
0##
b01 $#
0%#
1&#
0'#
1)#
b01 *#
1+#
0,#
0.#
0/#
00#
b00001 1#
b101 2#
04#
06#
07#
18#
b101 >#
0?#
0A#
0B#
1C#
b101 E#
0G#
0H#
1I#
0J#
b101 L#
0M#
0N#
1O#
0P#
b101 S#
0T#
1U#
0V#
0X#
b101 Z#
1[#
0\#
0^#
0_#
#14000000
b01110 !
b01111 "
b00001 #
b00000 %
b111 '
0(
b01111 )
b00001 *
b00000 ,
b1111 -
b0001 /
b10111 3
b0000 5
b1111 7
b0001 8
b111 ;
0<
b0000 ?
b0001 @
0E
b111 F
b111 L
0M
b111 N
0O
b111 Q
0R
b1111 S
b0001 T
1X
0Y
b1110 [
b1111 \
b0001 ]
1^
0_
b11 a
b00 b
b11 c
1e
0g
1h
0i
b11 k
b00 l
1m
0n
b11 p
1r
0t
0w
b0001 y
b000 z
0}
0!"
1""
0%"
0'"
b111 2"
03"
b01111 7"
b00001 8"
b111 9"
0:"
b10111 ;"
b10111 @"
b1111 A"
1B"
b01111 C"
b00001 D"
b111 E"
0F"
b111 J"
0K"
1M"
b111 O"
0P"
1R"
0S"
b111 T"
0U"
1W"
0X"
b111 Y"
0Z"
b111 ^"
0_"
b01111 a"
b00001 b"
b111 c"
0d"
1i"
b1111 j"
b1111 l"
1m"
1n"
1o"
1q"
1r"
1t"
1v"
1w"
1x"
1z"
1|"
1}"
1"#
1##
1%#
1'#
1(#
1,#
1-#
1.#
1/#
10#
b01111 1#
b001 2#
b10111 3#
14#
15#
16#
17#
08#
19#
1:#
1;#
0<#
1=#
b001 >#
1?#
1@#
1A#
1B#
0C#
1D#
b001 E#
1F#
1G#
1H#
0I#
1J#
1K#
b001 L#
1M#
1N#
0O#
1P#
1Q#
1R#
b001 S#
1T#
0U#
1V#
1W#
1X#
0Y#
b001 Z#
0[#
1\#
1]#
1^#
1_#
1`#
